time;count
00:00:00;5
00:30:00;1
01:00:00;2
01:30:00;0
02:00:00;17
02:30:00;10
03:00:00;0
03:30:00;0
04:00:00;2
04:30:00;0
05:00:00;166
05:30:00;73
06:00:00;224
06:30:00;99
07:00:00;183
07:30:00;111
08:00:00;221
08:30:00;83
09:00:00;149
09:30:00;87
10:00:00;137
10:30:00;126
11:00:00;119
11:30:00;72
12:00:00;123
12:30:00;45
13:00:00;124
13:30:00;55
14:00:00;71
14:30:00;83
15:00:00;132
15:30:00;72
16:00:00;139
16:30:00;73
17:00:00;184
17:30:00;79
18:00:00;86
18:30:00;9
19:00:00;21
19:30:00;6
20:00:00;15
20:30:00;3
21:00:00;10
21:30:00;3
22:00:00;5
22:30:00;1
23:00:00;2
23:30:00;1